ENVS-193DS_spring-2025_final
…
sst_clean <- sst |> 
  mutate( year = year(date),
          month = month(date, label = TRUE)) |> 
  filter(year %in% 2018:2023) |> 
  group_by(year, month) |> # group by year and month
  summarise(mean_monthly_sst = mean(temp)) |> 
  arrange(desc(year), match(month, month.abb)) |> 
  mutate(year = factor(year, levels = sort(unique(year))))

`summarise()` has grouped output by 'year'. You can override using the
`.groups` argument.

sst_clean |> slice_sample(n = 5)

# A tibble: 30 × 3
# Groups:   year [6]
   year  month mean_monthly_sst
   <fct> <ord>            <dbl>
 1 2018  Dec               15.6
 2 2018  Jan               15.0
 3 2018  Aug               19.6
 4 2018  Feb               14.3
 5 2018  Nov               17.9
 6 2019  Jun               15.8
 7 2019  Apr               13.7
 8 2019  Mar               13.6
 9 2019  Jan               14.7
10 2019  Sep               18.8
# ℹ 20 more rows
…
